Australia Weather Prediction
…
df[numc] %>%
  cor(use="complete.obs") %>% 
  ifelse(upper.tri(.,diag=TRUE),NA, .) %>%
  abs %>%
  data.frame %>%
  tbl_df %>%
  set_colnames(numc) %>%
  mutate(var1=numc) %>%
  gather(var2, cor,-var1) %>%
  na.omit %>%
  arrange(-abs(cor))

## # A tibble: 120 x 3
##    var1         var2            cor
##    <chr>        <chr>         <dbl>
##  1 temp3pm      maxtemp       0.985
##  2 pressure3pm  pressure9am   0.962
##  3 temp9am      mintemp       0.908
##  4 temp9am      maxtemp       0.894
##  5 temp3pm      temp9am       0.870
##  6 maxtemp      mintemp       0.753
##  7 temp3pm      mintemp       0.730
##  8 cloud3pm     sunshine      0.700
##  9 windspeed3pm windgustspeed 0.694
## 10 humidity3pm  humidity9am   0.679
## # ... with 110 more rows
…
