group_assignment_final
…
  option_pnl_l<-as.numeric(unlist(option_pnl_l))
  approx_pnl_l<-as.numeric(unlist(approx_pnl_l))
  
  df_results <- tibble(R_pnl=option_pnl_l, approxi_pnl=approx_pnl_l, days=1:(length(ss)-1))
  
  df_results<- df_results %>% mutate(`absolute error`=(abs(R_pnl-approxi_pnl)))
  
  return(df_results)
}
# creating the price, and running part 1 code
stock_prices = get_price(100,31)
Q1_results =  taylor_pnl(stock_prices)
Q1_results

## # A tibble: 30 x 4
##       R_pnl approxi_pnl  days `absolute error`
##       <dbl>       <dbl> <int>            <dbl>
##  1 -1.57       -1.58        1         0.00579 
##  2  0.318       0.320       2         0.00258 
##  3 -1.69       -1.69        3         0.000686
##  4 -1.11       -0.755       4         0.353   
##  5 -0.0608     -0.0612      5         0.000330
##  6  0.00472     0.00563     6         0.000911
##  7  0.00919     0.0106      7         0.00139 
##  8 -0.0348     -0.0328      8         0.00201 
##  9  0.00121     0.00166     9         0.000447
## 10 -0.0107     -0.00140    10         0.00933 
## # ... with 20 more rows
…
