FE8828 Assignment for Exploratory Data Analysis
…
names(JOBxEDU.Summary)[4] = "Percentage in Job Category"
JOBxEDU.Summary
## # A tibble: 48 x 4
## # Groups:   job [12]
##             job education     n `Percentage in Job Category`
##          <fctr>    <fctr> <int>                        <dbl>
##  1       admin.   primary    17                     3.556485
##  2       admin. secondary   393                    82.217573
##  3       admin.  tertiary    51                    10.669456
##  4       admin.   unknown    17                     3.556485
##  5  blue-collar   primary   369                    39.006342
##  6  blue-collar secondary   524                    55.391121
##  7  blue-collar  tertiary    12                     1.268499
##  8  blue-collar   unknown    41                     4.334038
##  9 entrepreneur   primary    26                    15.476190
## 10 entrepreneur secondary    58                    34.523810
## # ... with 38 more rows
…
names(JOBxAGE.Summary)[4] = "Percentage in Job Category"
JOBxAGE.Summary
## # A tibble: 67 x 4
## # Groups:   job [12]
##            job age_group     n `Percentage in Job Category`
##         <fctr>     <dbl> <int>                        <dbl>
##  1      admin.        20    62                    12.970711
##  2      admin.        30   200                    41.841004
##  3      admin.        40   135                    28.242678
##  4      admin.        50    71                    14.853556
##  5      admin.        60    10                     2.092050
##  6 blue-collar        20    96                    10.147992
##  7 blue-collar        30   395                    41.754757
##  8 blue-collar        40   285                    30.126850
##  9 blue-collar        50   160                    16.913319
## 10 blue-collar        60     8                     0.845666
## # ... with 57 more rows
…
AGExHOUSING.Summary
## # A tibble: 48 x 3
## # Groups:   age [48]
##      age housing     n
##    <int>  <fctr> <int>
##  1    21     yes     2
##  2    22     yes     1
##  3    23     yes    14
##  4    24     yes    18
##  5    25     yes    26
##  6    26     yes    43
##  7    27     yes    56
##  8    28     yes    62
##  9    29     yes    60
## 10    30     yes    92
## # ... with 38 more rows
…
AGExLOAN.Summary
## # A tibble: 39 x 3
## # Groups:   age [39]
##      age   loan     n
##    <int> <fctr> <int>
##  1    22    yes     3
##  2    24    yes     6
##  3    25    yes     6
##  4    26    yes    14
##  5    27    yes    11
##  6    28    yes    18
##  7    29    yes    10
##  8    30    yes    21
##  9    31    yes    33
## 10    32    yes    38
## # ... with 29 more rows
…
