FE8828 Assignment for Exploratory Data Analysis
…
Find the mean balance with respect to whether people have housing. Plot in terms of age.

df1 <- bank %>%
  group_by(age,housing) %>%
  summarise(mean_bal = mean(balance))%>%
  # case_when is a function to deal multiple choices. 
  mutate(age_group = case_when( 
    age < 30 ~ "youth", 
    age < 50 ~ "middle-age", 
    age < 60 ~ "senior", 
    TRUE ~ "elder" ))
## `summarise()` regrouping output by 'age' (override with `.groups` argument)
df1
## # A tibble: 115 x 4
## # Groups:   age [67]
##      age housing mean_bal age_group
##    <int> <chr>      <dbl> <chr>    
##  1    19 no          394. youth    
##  2    20 no          661. youth    
##  3    21 no         2076  youth    
##  4    21 yes        1020  youth    
##  5    22 no         1606. youth    
##  6    22 yes         246  youth    
##  7    23 no         3352. youth    
##  8    23 yes        1589. youth    
##  9    24 no          554. youth    
## 10    24 yes         661. youth    
## #  with 105 more rows
…
