Graphical Data Insights
…
Finding #4

Discover insights of duration and subscription rate

Generally, with longer duration, subscription rate tend to be higher.

group_by(bank, duration) %>%
  summarise(count = n(), 
            subscription_count = sum(ifelse(y == "no", 0, 1)),
            subscription_rate = subscription_count/count*100) %>%
  arrange(duration) -> res
## `summarise()` ungrouping output (override with `.groups` argument)
res
## # A tibble: 875 x 4
##    duration count subscription_count subscription_rate
##       <int> <int>              <dbl>             <dbl>
##  1        4     1                  0                 0
##  2        5     9                  0                 0
##  3        6     2                  0                 0
##  4        7     6                  0                 0
##  5        8     9                  0                 0
##  6        9    10                  0                 0
##  7       10     9                  0                 0
##  8       11     8                  0                 0
##  9       12     5                  0                 0
## 10       13     9                  0                 0
## # ... with 865 more rows
…
