Question2
…
Question2

Li Jiajing

2019/9/28

Finding #1

age_housing <- group_by(bank,age) %>%
  summarise(n = n(),
            housing_ratio = sum(ifelse(default == "no", 0, 1))/n)
arrange(age_housing) -> finding1
finding1
## # A tibble: 67 x 3
##      age     n housing_ratio
##    <int> <int>         <dbl>
##  1    19     4       0      
##  2    20     3       0      
##  3    21     7       0      
##  4    22     9       0      
##  5    23    20       0.05   
##  6    24    24       0.0417 
##  7    25    44       0.0227 
##  8    26    77       0.0390 
##  9    27    94       0.0426 
## 10    28   103       0.00971
## # ... with 57 more rows
…
Housing ratio of people around 20 and above 60 is 0.

Housing ratio of people between 20 and 60 has no clear trend with respect to age increasing(approximately random).

Finding #2

age_balance <- group_by(bank,age) %>%
  summarise(n = n(),
            balance = mean(balance))
arrange(age_balance) -> finding2
finding2
## # A tibble: 67 x 3
##      age     n balance
##    <int> <int>   <dbl>
##  1    19     4    394.
##  2    20     3    661.
##  3    21     7   1774.
##  4    22     9   1455.
##  5    23    20   2118.
##  6    24    24    635.
##  7    25    44   1240.
##  8    26    77    789.
##  9    27    94    852.
## 10    28   103   1025.
## # ... with 57 more rows
…
