Assignment 4B
…
Chen Jianguang Kevin

10/8/2019

Finding #1

The bank wants to decide how to segment different banking tiers (Retail, Premier, Treasures) based on existing clients bank balances. After analysis, the bank sees core concentration of bank balances below $30,000. As such, the bank decided to set Treasures Banking as >$20K, Premier Banking as >$10K and Retail Banking as <=$10K.

bank %>%
 group_by(bal_grp = (balance %/% 1000) * 1000) %>%
 summarise(count = n()) %>%
 arrange(bal_grp) -> banktier
banktier
## # A tibble: 33 x 2
##    bal_grp count
##      <dbl> <int>
##  1   -4000     1
##  2   -3000     1
##  3   -2000    12
##  4   -1000   352
##  5       0  2674
##  6    1000   594
##  7    2000   268
##  8    3000   186
##  9    4000   124
## 10    5000    75
## # ... with 23 more rows
…
    summarise(median_of_age = median(age), mean_of_balance = mean(balance)) %>%
    ungroup() %>% 
    mutate_if(is.factor, as.character)
}
frame2 <- bank %>%
  bank_summary()
frame3 <- bank %>%
  mutate(marital = "+") %>% 
  bank_summary()
frame4 <- bank %>%
  mutate(marital = "+", job = "+") %>%
  bank_summary()
frame5 <- bind_rows(frame2, frame3, frame4)
frame5
## # A tibble: 48 x 4
##    job          marital  median_of_age mean_of_balance
##    <chr>        <chr>            <dbl>           <dbl>
##  1 admin.       divorced            42            978.
##  2 admin.       married             41           1353.
##  3 admin.       single              33           1111.
##  4 blue-collar  divorced            43            745.
##  5 blue-collar  married             41           1064.
##  6 blue-collar  single              32           1323.
##  7 entrepreneur divorced            49            890.
##  8 entrepreneur married             42           1613.
##  9 entrepreneur single              32           2463.
## 10 housemaid    divorced            50           1166.
## # ... with 38 more rows
…
