Exploratory Data Analysis
…
The youngest and oldest group tend to have higher subscription rate.

People of middle age have the largest subscription size but the rate is the lowest.

group_by(bank, age) %>%
  summarise(count = n(), 
            balance_mean = mean(balance), 
            default_count = sum(ifelse(default == "no", 0, 1)),
            subscription_count = sum(ifelse(y == "no", 0, 1)),
            "default_rate(%)" = default_count/count*100,
            "subscription_rate(%)" = subscription_count/count*100) %>%
  arrange(age) -> res
## `summarise()` ungrouping output (override with `.groups` argument)
res
## # A tibble: 67 x 7
##      age count balance_mean default_count subscription_co~ `default_rate(%~
##    <int> <int>        <dbl>         <dbl>            <dbl>            <dbl>
##  1    19     4         394.             0                2            0    
##  2    20     3         661.             0                1            0    
##  3    21     7        1774.             0                1            0    
##  4    22     9        1455.             0                3            0    
##  5    23    20        2118.             1                2            5    
##  6    24    24         635.             1                4            4.17 
##  7    25    44        1240.             1               10            2.27 
##  8    26    77         789.             3                7            3.90 
##  9    27    94         852.             4               14            4.26 
## 10    28   103        1025.             1               16            0.971
## # ... with 57 more rows, and 1 more variable: `subscription_rate(%)` <dbl>
…
Tertiary educaiton leads to most management jobs, and these prople contributed to the largest total balance.

group_by(bank, education,job) %>%
  summarise(count = n(), 
            balance_mean = mean(balance),
            balance_sum = sum(balance),
            default_count = sum(ifelse(default == "no", 0, 1)),
            subscription_count = sum(ifelse(y == "no", 0, 1)),
            "default_rate(%)" = default_count/count*100,
            "subscription_rate(%)" = subscription_count/count*100) %>%
  arrange(education) -> res
## `summarise()` regrouping output by 'education' (override with `.groups` argument)
res
## # A tibble: 48 x 9
## # Groups:   education [4]
##    education job   count balance_mean balance_sum default_count subscription_co~
##    <fct>     <fct> <int>        <dbl>       <int>         <dbl>            <dbl>
##  1 primary   admi~    17         391.        6640             0                1
##  2 primary   blue~   369        1072.      395647             4               16
##  3 primary   entr~    26         384.        9982             2                3
##  4 primary   hous~    57        1807.      103005             1                8
##  5 primary   mana~    39        2685.      104731             0                5
##  6 primary   reti~    80        2745.      219568             1               16
##  7 primary   self~    15        1472.       22076             0                2
##  8 primary   serv~    25        1107.       27683             1                3
##  9 primary   stud~     2        1788.        3575             0                2
## 10 primary   tech~    15        2593        38895             0                3
## # ... with 38 more rows, and 2 more variables: `default_rate(%)` <dbl>,
## #   `subscription_rate(%)` <dbl>
…
Finding #7

Discover insights of last contact month

People who last contacted in May tend to have the highest subscription rate and also the largest subscription number

bank %>%
  group_by(month,y) %>%
  summarise(count = n()) %>%
  arrange(month) -> res
## `summarise()` regrouping output by 'month' (override with `.groups` argument)
res
## # A tibble: 24 x 3
## # Groups:   month [12]
##    month y     count
##    <fct> <fct> <int>
##  1 apr   no      237
##  2 apr   yes      56
##  3 aug   no      554
##  4 aug   yes      79
##  5 dec   no       11
##  6 dec   yes       9
##  7 feb   no      184
##  8 feb   yes      38
##  9 jan   no      132
## 10 jan   yes      16
## # ... with 14 more rows
…
