Assignment 4-3
…
cat(paste0("close price:", "\n"))
## close price:
close_price <- close_price %>% 
  rename(date = ...1) %>%
  rename(spy = ...2) %>%
  rename(apple = ...3) %>%
  rename(intel = ...4) %>%
  rename(tesla = ...5) %>%
  rename(ebay = ...6) 
close_price
## # A tibble: 100 x 6
##    date         spy apple intel tesla  ebay
##    <date>     <dbl> <dbl> <dbl> <dbl> <dbl>
##  1 2020-05-27  304.  79.5  63.6  164.  44.2
##  2 2020-05-28  303.  79.6  61.7  161.  44.2
##  3 2020-05-29  304.  79.5  62.9  167   45.5
##  4 2020-06-01  306.  80.5  61.9  180.  45.2
##  5 2020-06-02  308.  80.8  62.1  176.  46.0
##  6 2020-06-03  312.  81.3  61.9  177.  46.4
##  7 2020-06-04  311.  80.6  63.0  173.  49.4
##  8 2020-06-05  319.  82.9  64.3  177.  48.8
##  9 2020-06-08  323.  83.4  63.7  190.  48.7
## 10 2020-06-09  321.  86.0  63.0  188.  49.8
## #  with 90 more rows
…
