FE8828 Assignment for Exploratory Data Analysis
…
Finding 5

The education level varies among age groups(excluding students).

Excluding people under 20 years old, the younger a person is, the more likelihood that he has a high education level.

# Find the relationship between age and education
bank %>% 
  dplyr::filter(education !="student")  %>%
  group_by(age_group = (age %/% 10) * 10, education) %>%
  summarise(num = n()) -> res
res
## # A tibble: 29 x 3
## # Groups:   age_group [8]
##    age_group education   num
##        <dbl> <fct>     <int>
##  1        10 primary       1
##  2        10 secondary     1
##  3        10 unknown       2
##  4        20 primary      25
##  5        20 secondary   301
##  6        20 tertiary    135
##  7        20 unknown      17
##  8        30 primary     158
##  9        30 secondary   948
## 10        30 tertiary    659
## #  with 19 more rows
…
